{
    "version": "https://jsonfeed.org/version/1",
    "title": "musee.kr",
    "description": "",
    "home_page_url": "https://musee.kr",
    "feed_url": "https://musee.kr/feed.json",
    "user_comment": "",
    "author": {
        "name": "Paradise"
    },
    "items": [
        {
            "id": "https://musee.kr/michelles-artstory-21/",
            "url": "https://musee.kr/michelles-artstory-21/",
            "title": "Michelle&#x27;s ArtStory 21",
            "summary": "[미쉘쌤의 미술이야기 21] 곰브리치 서양미술사 16장 빛과 색 16세기 초 베네치아와 북부&hellip;",
            "content_html": "<p>[미쉘쌤의 미술이야기 21] 곰브리치 서양미술사 16장 빛과 색</p>\n<p><span id=\"snippet-text\" class=\"style-scope ytd-text-inline-expander\"><span class=\"yt-core-attributed-string yt-core-attributed-string--white-space-pre-wrap\">16세기 초 베네치아와 북부 이탈리아 미술을 이야기합니다.</span></span><span class=\"style-scope ytd-text-inline-expander\"> </span></p>\n<div class=\"post__iframe\"><iframe loading=\"lazy\" width=\"840\" height=\"472\" src=\"https://www.youtube.com/embed/kSDKTwdZIk0\" title=\"[미쉘쌤의미술이야기 21] 곰브리치 서양미술사 16장 빛과 색채\" frameborder=\"0\" allow=\"accelerometer; autoplay; clipboard-write; encrypted-media; gyroscope; picture-in-picture; web-share\" allowfullscreen=\"allowfullscreen\"></iframe></div>\n<p> </p>",
            "image": "https://musee.kr/media/posts/44/MAS-S01E22-CH16-Cover.jpeg",
            "author": {
                "name": "Paradise"
            },
            "tags": [
                   "Michelle&#x27;s Artstory"
            ],
            "date_published": "2024-01-29T00:37:17-06:00",
            "date_modified": "2024-01-29T03:35:46-06:00"
        },
        {
            "id": "https://musee.kr/michelles-artstory-20-2/",
            "url": "https://musee.kr/michelles-artstory-20-2/",
            "title": "Michelle&#x27;s ArtStory 20",
            "summary": "[미쉘쌤의 미술이야기 20] 곰브리치 서양미술사 15장 조화의 달성 (2부) 16세기 이탈리아 르네상스&hellip;",
            "content_html": "<p>[미쉘쌤의 미술이야기 20] 곰브리치 서양미술사 15장 조화의 달성 (2부)</p>\n<p>16세기 이탈리아 르네상스 전성기, 미켈란젤로와 라파엘로의 미술 이야기와 함께 메트로폴리탄 뮤지엄의 미켈란젤로 특별 전시에 대해 이야기를 나눕니다.</p>\n<div class=\"post__iframe\"><iframe loading=\"lazy\" width=\"840\" height=\"472\" src=\"https://www.youtube.com/embed/hI3O6v0IKuQ\" title=\"[미쉘쌤의미술이야기 20] 곰브리치 서양미술사 15장 조화의 달성 (2부)\" frameborder=\"0\" allow=\"accelerometer; autoplay; clipboard-write; encrypted-media; gyroscope; picture-in-picture; web-share\" allowfullscreen=\"allowfullscreen\"></iframe></div>\n<p> </p>",
            "image": "https://musee.kr/media/posts/43/fr_10141.jpg",
            "author": {
                "name": "Paradise"
            },
            "tags": [
                   "Michelle&#x27;s Artstory"
            ],
            "date_published": "2023-12-06T23:20:20-06:00",
            "date_modified": "2024-01-29T00:42:16-06:00"
        },
        {
            "id": "https://musee.kr/michelles-artstory-19/",
            "url": "https://musee.kr/michelles-artstory-19/",
            "title": "Michelle&#x27;s ArtStory 19",
            "summary": "[미쉘쌤의 미술이야기 19] 곰브리치 서양미술사 15장 조화의 달성 (1부) 16세기 르네상스 전성기,&hellip;",
            "content_html": "<p>[미쉘쌤의 미술이야기 19] 곰브리치 서양미술사 15장 조화의 달성 (1부)</p>\n<p><span class=\"yt-core-attributed-string--link-inherit-color\">16세기 르네상스 전성기, 레오나르도 다빈치의 위대한 여정을 이야기 합니다. <a class=\"yt-core-attributed-string__link yt-core-attributed-string__link--display-type yt-core-attributed-string__link--call-to-action-color\" href=\"https://www.youtube.com/hashtag/%EA%B3%B0%EB%B8%8C%EB%A6%AC%EC%B9%98\" rel=\"nofollow\" target=\"\" force-new-state=\"true\" tabindex=\"0\">#곰브리치</a> <a class=\"yt-core-attributed-string__link yt-core-attributed-string__link--display-type yt-core-attributed-string__link--call-to-action-color\" href=\"https://www.youtube.com/hashtag/%EC%84%9C%EC%96%91%EB%AF%B8%EC%88%A0%EC%82%AC\" rel=\"nofollow\" target=\"\" force-new-state=\"true\" tabindex=\"0\">#서양미술사</a> <a class=\"yt-core-attributed-string__link yt-core-attributed-string__link--display-type yt-core-attributed-string__link--call-to-action-color\" href=\"https://www.youtube.com/hashtag/16%EC%84%B8%EA%B8%B0%EB%A5%B4%EB%84%A4%EC%83%81%EC%8A%A4%EC%A0%84%EC%84%B1%EA%B8%B0\" rel=\"nofollow\" target=\"\" force-new-state=\"true\" tabindex=\"0\">#16세기르네상스전성기</a> <a class=\"yt-core-attributed-string__link yt-core-attributed-string__link--display-type yt-core-attributed-string__link--call-to-action-color\" href=\"https://www.youtube.com/hashtag/%EB%A0%88%EC%98%A4%EB%82%98%EB%A5%B4%EB%8F%84%EB%8B%A4%EB%B9%88%EC%B9%98\" rel=\"nofollow\" target=\"\" force-new-state=\"true\" tabindex=\"0\">#레오나르도다빈치</a> <a class=\"yt-core-attributed-string__link yt-core-attributed-string__link--display-type yt-core-attributed-string__link--call-to-action-color\" href=\"https://www.youtube.com/hashtag/%EC%B5%9C%ED%9B%84%EC%9D%98%EB%A7%8C%EC%B0%AC\" rel=\"nofollow\" target=\"\" force-new-state=\"true\" tabindex=\"0\">#최후의만찬</a> <a class=\"yt-core-attributed-string__link yt-core-attributed-string__link--display-type yt-core-attributed-string__link--call-to-action-color\" href=\"https://www.youtube.com/hashtag/%EB%AA%A8%EB%82%98%EB%A6%AC%EC%9E%90\" rel=\"nofollow\" target=\"\" force-new-state=\"true\" tabindex=\"0\">#모나리자</a> </span><span class=\"yt-core-attributed-string--link-inherit-color\"><a class=\"yt-core-attributed-string__link yt-core-attributed-string__link--display-type yt-core-attributed-string__link--call-to-action-color\" href=\"https://www.youtube.com/hashtag/%ED%99%A9%EC%95%BC%EC%9D%98%EC%84%B1%ED%9E%88%EC%97%90%EB%A1%9C%EB%8B%88%EB%AC%B4%EC%8A%A4\" rel=\"nofollow\" target=\"\" force-new-state=\"true\" tabindex=\"0\">#황야의성히에로니무스</a></span> <span class=\"yt-core-attributed-string--link-inherit-color\"><a class=\"yt-core-attributed-string__link yt-core-attributed-string__link--display-type yt-core-attributed-string__link--call-to-action-color\" href=\"https://www.youtube.com/hashtag/%EC%84%B8%EC%9D%B8%ED%8A%B8%EC%A0%9C%EB%A1%AC\" rel=\"nofollow\" target=\"\" force-new-state=\"true\" tabindex=\"0\">#세인트제롬</a></span> <span class=\"yt-core-attributed-string--link-inherit-color\"><a class=\"yt-core-attributed-string__link yt-core-attributed-string__link--display-type yt-core-attributed-string__link--call-to-action-color\" href=\"https://www.youtube.com/hashtag/%EB%A9%94%ED%8A%B8%EB%A1%9C%ED%8F%B4%EB%A6%AC%ED%83%84%EB%AE%A4%EC%A7%80%EC%97%84\" rel=\"nofollow\" target=\"\" force-new-state=\"true\" tabindex=\"0\">#메트로폴리탄뮤지엄</a></span> <span class=\"yt-core-attributed-string--link-inherit-color\"><a class=\"yt-core-attributed-string__link yt-core-attributed-string__link--display-type yt-core-attributed-string__link--call-to-action-color\" href=\"https://www.youtube.com/hashtag/%EB%A9%94%ED%8A%B8%EB%AE%A4%EC%A7%80%EC%97%84\" rel=\"nofollow\" target=\"\" force-new-state=\"true\" tabindex=\"0\">#메트뮤지엄</a></span> <span class=\"yt-core-attributed-string--link-inherit-color\"><a class=\"yt-core-attributed-string__link yt-core-attributed-string__link--display-type yt-core-attributed-string__link--call-to-action-color\" href=\"https://www.youtube.com/hashtag/%EB%B8%8C%EB%9D%BC%EB%A7%8C%ED%85%8C\" rel=\"nofollow\" target=\"\" force-new-state=\"true\" tabindex=\"0\">#브라만테</a></span> <span class=\"yt-core-attributed-string--link-inherit-color\"><a class=\"yt-core-attributed-string__link yt-core-attributed-string__link--display-type yt-core-attributed-string__link--call-to-action-color\" href=\"https://www.youtube.com/hashtag/%EB%B2%A0%EB%A1%9C%ED%82%A4%EC%98%A4\" rel=\"nofollow\" target=\"\" force-new-state=\"true\" tabindex=\"0\">#베로키오</a></span></p>\n<div class=\"post__iframe\"><iframe loading=\"lazy\" width=\"834\" height=\"469\" src=\"https://www.youtube.com/embed/DpAUaCMaMzg\" title=\"[미쉘쌤의 미술이야기 19] 곰브리치 서양미술사 15장 조화의 달성 (1부)\" frameborder=\"0\" allow=\"accelerometer; autoplay; clipboard-write; encrypted-media; gyroscope; picture-in-picture; web-share\" allowfullscreen=\"allowfullscreen\"></iframe></div>\n<p> </p>",
            "image": "https://musee.kr/media/posts/41/fr_9249.jpg",
            "author": {
                "name": "Paradise"
            },
            "tags": [
                   "Michelle&#x27;s Artstory"
            ],
            "date_published": "2023-08-03T22:45:00-05:00",
            "date_modified": "2023-08-03T22:49:52-05:00"
        },
        {
            "id": "https://musee.kr/michelles-artstory-18/",
            "url": "https://musee.kr/michelles-artstory-18/",
            "title": "Michelle&#x27;s ArtStory 18",
            "summary": "[미쉘쌤의 미술이야기 18] 곰브리치 서양미술사 14장 전통과 혁신 II 15세기 북유럽의 미술은&hellip;",
            "content_html": "<p>[미쉘쌤의 미술이야기 18] 곰브리치 서양미술사 14장 전통과 혁신 II</p>\n<p>15세기 북유럽의 미술은 어떻게 전통과 혁신을 이루어 갔는지 살펴 봅니다. 매트의 한국관 이야기와 세계가 주목하는 작가 이불에 대해서도 이야기 합니다.</p>\n<div class=\"post__iframe\"><iframe loading=\"lazy\" width=\"942\" height=\"530\" src=\"https://www.youtube.com/embed/0fuvs3bNUIo\" title=\"[미쉘쌤의 미술이야기 18] 곰브리치 서양미술사 14장 전통과 혁신 II\" frameborder=\"0\" allow=\"accelerometer; autoplay; clipboard-write; encrypted-media; gyroscope; picture-in-picture; web-share\" allowfullscreen=\"allowfullscreen\"></iframe></div>",
            "image": "https://musee.kr/media/posts/40/MAS-S01E19cover.jpg",
            "author": {
                "name": "Paradise"
            },
            "tags": [
                   "Michelle&#x27;s Artstory"
            ],
            "date_published": "2023-03-18T22:19:14-05:00",
            "date_modified": "2023-06-10T22:09:07-05:00"
        },
        {
            "id": "https://musee.kr/michelles-artstory-17/",
            "url": "https://musee.kr/michelles-artstory-17/",
            "title": "Michelle&#x27;s ArtStory 17",
            "summary": "[미쉘쌤의 미술이야기 17] 곰브리치 서양미술사 13장 전통과 혁신 곰브리치 서양미술사 13장은 15세기&hellip;",
            "content_html": "<p>[미쉘쌤의 미술이야기 17] 곰브리치 서양미술사 13장 전통과 혁신</p>\n<p>곰브리치 서양미술사 13장은 15세기 후반 이탈리아 미술을 이야기합니다. 전통과 혁신이라는 두 정신은 어떻게 마주하고 충돌 하기도 하면서 르네상스 미술을 만들어 갔는지 살펴 볼까요?</p>\n<div class=\"post__iframe\"><iframe loading=\"lazy\" width=\"1227\" height=\"690\" src=\"https://www.youtube.com/embed/j1-IB98PP3g\" title=\"[미쉘쌤의 미술이야기 17] 곰브리치 서양미술사 13장 전통과 혁신\" frameborder=\"0\" allow=\"accelerometer; autoplay; clipboard-write; encrypted-media; gyroscope; picture-in-picture\" allowfullscreen=\"allowfullscreen\"></iframe></div>",
            "image": "https://musee.kr/media/posts/37/cover17.jpg",
            "author": {
                "name": "Paradise"
            },
            "tags": [
                   "Michelle&#x27;s Artstory"
            ],
            "date_published": "2022-03-30T21:00:00-05:00",
            "date_modified": "2023-06-10T22:08:37-05:00"
        },
        {
            "id": "https://musee.kr/michelles-artstory-16/",
            "url": "https://musee.kr/michelles-artstory-16/",
            "title": "Michelle&#x27;s ArtStory 16",
            "summary": "[미쉘쌤의 미술이야기 16] 곰브리치 서양미술사 12장 현실성의 정복 곰브리치 서양 미술사 12장은&hellip;",
            "content_html": "<p>[미쉘쌤의 미술이야기 16] 곰브리치 서양미술사 12장 현실성의 정복</p>\n<p>곰브리치 서양 미술사 12장은 현실성의 정복이라는 제목과 함께 15세기 초 르네상스 미술을 열어갑니다. 그리고 메트로폴리탄 뮤지엄에 새롭게 오픈한 유러피안 갤러리와 초기 르네상스 거장 필리포 리피가 그린 초상화에 대한 이야기도 이어갑니다</p>\n<div class=\"post__iframe\"><iframe loading=\"lazy\" width=\"1227\" height=\"690\" src=\"https://www.youtube.com/embed/zN9V9xssU10\" title=\"[미쉘쌤의 미술이야기 16] 곰브리치 서양미술사 12장 현실성의 정복\" frameborder=\"0\" allow=\"accelerometer; autoplay; clipboard-write; encrypted-media; gyroscope; picture-in-picture\" allowfullscreen=\"allowfullscreen\"></iframe></div>",
            "image": "https://musee.kr/media/posts/35/maxresdefault16.jpg",
            "author": {
                "name": "Paradise"
            },
            "tags": [
                   "Michelle&#x27;s Artstory"
            ],
            "date_published": "2021-09-18T20:58:00-05:00",
            "date_modified": "2023-06-10T22:08:03-05:00"
        },
        {
            "id": "https://musee.kr/michelles-artstory-15/",
            "url": "https://musee.kr/michelles-artstory-15/",
            "title": "Michelle&#x27;s ArtStory 15",
            "summary": "[미쉘쌤의 미술이야기 15] 클로이스터 뮤지엄 02 유니콘 타피스트리 클로이스터 뮤지엄이 자랑하는 Masterpiece&hellip;",
            "content_html": "<p>[미쉘쌤의 미술이야기 15] 클로이스터 뮤지엄 02 유니콘 타피스트리</p>\n<p>클로이스터 뮤지엄이 자랑하는 Masterpiece 이자, 세계에서 가장 유명한 타피스트리인 7개의 유니콘 타피스트리와 중세의 신화적인 동물인 유니콘 사냥에 관한 이야기 입니다.<br><br>(이 영상은 미쉘쌤의 미술이야기 9편 내용 중에서미쉘쌤의 PICK 부분을 발췌하였습니다.)</p>\n<div class=\"post__iframe\"><iframe loading=\"lazy\" width=\"1227\" height=\"690\" src=\"https://www.youtube.com/embed/Io1BezB84B4\" title=\"[미쉘쌤의 미술이야기 15] 클로이스터 뮤지엄 02 유니콘 타피스트리\" frameborder=\"0\" allow=\"accelerometer; autoplay; clipboard-write; encrypted-media; gyroscope; picture-in-picture\" allowfullscreen=\"allowfullscreen\"></iframe></div>",
            "image": "https://musee.kr/media/posts/34/maxresdefault15.jpg",
            "author": {
                "name": "Paradise"
            },
            "tags": [
                   "Michelle&#x27;s Artstory"
            ],
            "date_published": "2021-07-12T20:54:00-05:00",
            "date_modified": "2023-06-10T22:07:58-05:00"
        },
        {
            "id": "https://musee.kr/michelles-artstory-14/",
            "url": "https://musee.kr/michelles-artstory-14/",
            "title": "Michelle&#x27;s ArtStory 14",
            "summary": "[미쉘쌤의 미술이야기 14] 클로이스터 뮤지엄 01 챕터하우스와 산타마리아 교회 가장 현대적인 도시&hellip;",
            "content_html": "<p>[미쉘쌤의 미술이야기 14] 클로이스터 뮤지엄 01 챕터하우스와 산타마리아 교회</p>\n<p>가장 현대적인 도시 뉴욕에서 중세의 시간과 공간으로 고즈넉하게 여행을 할 수 있는 곳. 클로이스터는 수도원의 심장이자 소통의 장소이며, 하늘이 열려있는 정원입니다.</p>\n<div class=\"post__iframe\"><iframe loading=\"lazy\" width=\"1227\" height=\"690\" src=\"https://www.youtube.com/embed/X5io13Fthak\" title=\"[미쉘쌤의 미술이야기 14] 클로이스터 뮤지엄 01 챕터하우스와 산타마리아 교회\" frameborder=\"0\" allow=\"accelerometer; autoplay; clipboard-write; encrypted-media; gyroscope; picture-in-picture\" allowfullscreen=\"allowfullscreen\"></iframe></div>",
            "image": "https://musee.kr/media/posts/33/maxresdefault.jpg",
            "author": {
                "name": "Paradise"
            },
            "tags": [
                   "Michelle&#x27;s Artstory"
            ],
            "date_published": "2021-06-15T20:51:00-05:00",
            "date_modified": "2023-08-03T22:57:24-05:00"
        },
        {
            "id": "https://musee.kr/michelles-artstory-13/",
            "url": "https://musee.kr/michelles-artstory-13/",
            "title": "Michelle&#x27;s ArtStory 13",
            "summary": "[미쉘쌤의 미술이야기 13] 곰브리치 서양미술사 11장 귀족과 시민 14세기 유럽의 귀족과 시민에&hellip;",
            "content_html": "<p>[미쉘쌤의 미술이야기 13] 곰브리치 서양미술사 11장 귀족과 시민</p>\n<p>14세기 유럽의 귀족과 시민에 관한 이야기와 이 시대 미술의 특징인 도시의 세련된 취향과 장식적 양식, 그리고 뉴욕 메트로폴리탄 뮤지엄의 로버트 리만 콜렉션에 대한 이야기를 들려 드립니다.</p>\n<div class=\"post__iframe\"><iframe loading=\"lazy\" width=\"1215\" height=\"683\" src=\"https://www.youtube.com/embed/74iFCB7ODSU\" title=\"YouTube video player\" frameborder=\"0\" allow=\"accelerometer; autoplay; clipboard-write; encrypted-media; gyroscope; picture-in-picture\" allowfullscreen=\"allowfullscreen\"></iframe></div>",
            "image": "https://musee.kr/media/posts/32/fr_1643.jpg",
            "author": {
                "name": "Paradise"
            },
            "tags": [
                   "Michelle&#x27;s Artstory"
            ],
            "date_published": "2021-05-18T18:49:27-05:00",
            "date_modified": "2022-10-14T20:53:56-05:00"
        },
        {
            "id": "https://musee.kr/michelles-artstory-12/",
            "url": "https://musee.kr/michelles-artstory-12/",
            "title": "Michelle&#x27;s ArtStory 12",
            "summary": "[미쉘쌤의 미술이야기 12] 곰브리치 서양미술사 10장 교회의 승리 곰브리치 서양미술사 열번째 챕터&hellip;",
            "content_html": "<p>[미쉘쌤의 미술이야기 12] 곰브리치 서양미술사 10장 교회의 승리</p>\n<p>곰브리치 서양미술사 열번째 챕터 '교회의 승리'는 13세기 고딕 미술에 대한 이야기입니다. 프랑스에서 시작된 대성당 시대의 미술과 메트로폴리탄 뮤지엄의 중세 미술관 콰이어스크린에 관한 이야기도 들려 드립니다.</p>\n<div class=\"post__iframe\"><iframe loading=\"lazy\" width=\"1280\" height=\"720\" src=\"https://www.youtube.com/embed/INydlq_pzb8\" title=\"YouTube video player\" frameborder=\"0\" allow=\"accelerometer; autoplay; clipboard-write; encrypted-media; gyroscope; picture-in-picture\" allowfullscreen=\"allowfullscreen\"></iframe></div>",
            "image": "https://musee.kr/media/posts/31/artstory12.jpg",
            "author": {
                "name": "Paradise"
            },
            "tags": [
                   "Michelle&#x27;s Artstory"
            ],
            "date_published": "2021-04-07T09:30:02-05:00",
            "date_modified": "2021-05-18T18:57:31-05:00"
        }
    ]
}
